90 3 45 10
1000 1000 1000 
1000 1000 1000 
1000 1000 1000 
1000 1000 1000 
1000 1000 1000 
1000 1000 1000 
1000 1000 1000 
1000 1000 1000 
1000 1000 1000 
1000 1000 1000 
0 834 1088 A 119 302 848 
1 943 1216 A 829 218 310 
2 762 1413 A 693 798 624 
3 929 1265 A 979 483 430 
4 433 973 A 860 820 289 
5 1311 1429 A 707 945 813 
6 922 1198 A 605 629 205 
7 331 700 A 653 654 465 
8 947 1337 A 415 140 380 
9 1388 1423 A 987 752 930 
10 1085 1327 A 398 227 962 
11 1421 1435 A 969 699 319 
12 1301 1399 A 981 210 49 
13 93 841 A 98 406 723 
14 288 525 A 525 257 463 
15 964 1435 A 776 256 314 
16 196 720 A 194 580 794 
17 1123 1286 A 951 936 71 
18 996 1135 A 783 900 659 
19 201 853 A 28 586 333 
20 1375 1395 A 957 661 153 
21 1285 1354 A 756 771 674 
22 687 770 A 43 464 491 
23 110 602 A 677 303 468 
24 1317 1344 A 336 518 512 
25 1133 1414 A 534 561 836 
26 240 522 A 824 510 407 
27 884 1359 A 726 323 964 
28 1099 1385 A 10 323 5 
29 269 820 A 308 294 530 
30 1438 1439 A 526 239 17 
31 1320 1438 A 478 860 970 
32 1229 1318 A 898 586 304 
33 1194 1295 A 733 854 461 
34 797 1300 A 699 66 387 
35 988 1199 A 955 716 809 
36 1085 1090 A 658 695 443 
37 1353 1385 A 483 115 839 
38 926 1232 A 548 584 643 
39 1026 1358 A 690 810 772 
40 60 991 A 150 659 389 
41 920 1003 A 589 424 365 
42 98 1112 A 574 928 229 
43 100 163 A 634 501 690 
44 772 1102 A 127 868 42 
45 180 512 B 601 533 366 
46 251 762 B 177 93 485 
47 768 967 B 751 271 136 
48 224 1031 B 608 342 17 
49 152 672 B 863 719 410 
50 591 1183 B 911 547 959 
51 544 1401 B 931 593 488 
52 1368 1413 B 260 104 331 
53 134 528 B 169 262 335 
54 346 787 B 182 585 101 
55 694 1139 B 686 528 928 
56 1292 1317 B 553 90 557 
57 1422 1425 B 982 409 230 
58 974 1336 B 231 106 156 
59 1173 1423 B 823 516 646 
60 444 1140 B 917 467 379 
61 1276 1431 B 511 217 931 
62 1368 1430 B 121 236 76 
63 747 1351 B 756 280 840 
64 1058 1319 B 235 592 961 
65 127 953 B 634 376 354 
66 450 601 B 79 82 361 
67 732 782 B 556 867 329 
68 637 742 B 442 191 951 
69 277 951 B 90 222 670 
70 1201 1287 B 227 110 50 
71 569 1194 B 493 170 990 
72 329 1053 B 730 787 551 
73 371 1211 B 72 504 187 
74 714 939 B 597 830 773 
75 1341 1417 B 88 583 192 
76 560 870 B 43 560 437 
77 721 1049 B 940 14 628 
78 182 1381 B 812 808 749 
79 1032 1167 B 729 850 194 
80 599 861 B 60 750 412 
81 434 1428 B 532 847 271 
82 286 1145 B 560 537 825 
83 310 1277 B 187 649 762 
84 663 832 B 893 907 49 
85 946 1285 B 550 346 485 
86 692 999 B 776 808 890 
87 56 791 B 825 415 702 
88 1128 1379 B 178 458 615 
89 1097 1245 B 282 699 839 