60 3 30 10
1000 1000 1000 
1000 1000 1000 
1000 1000 1000 
1000 1000 1000 
1000 1000 1000 
1000 1000 1000 
1000 1000 1000 
1000 1000 1000 
1000 1000 1000 
1000 1000 1000 
0 660 859 A 904 884 22 
1 340 453 A 571 101 692 
2 74 895 A 255 919 935 
3 509 1168 A 173 360 426 
4 381 797 A 603 381 539 
5 1188 1435 A 514 786 125 
6 1417 1422 A 841 441 744 
7 321 420 A 819 120 513 
8 1314 1348 A 843 779 122 
9 230 1198 A 237 254 276 
10 185 262 A 336 870 156 
11 1387 1399 A 545 316 316 
12 724 944 A 468 7 299 
13 442 607 A 279 579 240 
14 150 542 A 912 545 75 
15 972 1248 A 187 356 610 
16 516 1250 A 595 984 962 
17 1132 1302 A 575 687 284 
18 735 786 A 665 929 491 
19 1437 1439 A 137 780 893 
20 1034 1395 A 988 106 385 
21 986 1390 A 286 260 806 
22 746 1052 A 672 701 649 
23 374 471 A 129 95 448 
24 1074 1085 A 681 276 852 
25 114 858 A 672 619 342 
26 1152 1393 A 427 501 404 
27 989 1179 A 138 566 35 
28 66 266 A 485 156 836 
29 694 733 A 998 971 766 
30 88 275 B 17 271 363 
31 216 1197 B 67 473 891 
32 456 1141 B 496 777 454 
33 1084 1323 B 854 950 818 
34 1072 1397 B 654 706 463 
35 769 978 B 446 911 786 
36 543 590 B 460 237 276 
37 374 1135 B 600 931 460 
38 7 264 B 669 810 796 
39 789 900 B 468 449 495 
40 1344 1424 B 372 149 442 
41 202 221 B 453 694 599 
42 151 364 B 559 112 818 
43 489 952 B 941 265 220 
44 358 1079 B 716 294 396 
45 446 602 B 198 460 549 
46 654 761 B 353 276 905 
47 986 1059 B 948 233 938 
48 283 1117 B 356 61 19 
49 244 1096 B 638 100 95 
50 1228 1387 B 282 458 146 
51 383 616 B 421 310 379 
52 703 1083 B 544 187 495 
53 1070 1437 B 36 480 368 
54 1431 1432 B 282 351 977 
55 476 1242 B 652 140 436 
56 919 958 B 114 379 79 
57 782 997 B 937 881 294 
58 379 1430 B 7 294 831 
59 1301 1374 B 538 100 468 