40 3 20 10
1000 1000 1000 
1000 1000 1000 
1000 1000 1000 
1000 1000 1000 
1000 1000 1000 
1000 1000 1000 
1000 1000 1000 
1000 1000 1000 
1000 1000 1000 
1000 1000 1000 
0 1174 1193 A 851 765 149 
1 570 842 A 515 527 376 
2 253 1146 A 737 361 767 
3 379 735 A 755 696 24 
4 838 1335 A 183 797 166 
5 409 479 A 35 308 921 
6 68 271 A 589 179 841 
7 1029 1295 A 64 723 571 
8 884 901 A 964 288 526 
9 470 822 A 906 416 141 
10 609 1022 A 191 829 133 
11 683 1125 A 318 712 538 
12 795 1231 A 572 20 656 
13 413 551 A 125 269 640 
14 339 1008 A 345 965 443 
15 1278 1325 A 596 615 622 
16 750 1162 A 462 251 134 
17 1145 1400 A 373 550 677 
18 1253 1295 A 676 81 955 
19 1437 1438 A 689 483 935 
20 4 556 B 494 348 711 
21 568 1406 B 318 64 614 
22 1410 1427 B 201 969 936 
23 1221 1283 B 423 729 310 
24 382 992 B 186 740 457 
25 171 617 B 405 461 752 
26 1109 1212 B 227 160 772 
27 1027 1426 B 567 854 312 
28 1076 1369 B 438 432 243 
29 361 428 B 993 946 754 
30 831 1361 B 568 950 451 
31 551 942 B 649 249 564 
32 894 1258 B 438 930 554 
33 975 1115 B 561 361 778 
34 304 516 B 644 916 922 
35 245 470 B 277 272 785 
36 1279 1340 B 665 765 972 
37 1222 1416 B 397 729 748 
38 7 1222 B 478 596 694 
39 347 526 B 947 280 55 